<?xml version="1.0" encoding="UTF-8"?>
<svg xmlns="http://www.w3.org/2000/svg" xmlns:xlink="http://www.w3.org/1999/xlink" width="21" height="21" viewBox="0 0 21 21" version="1.1">
<g id="surface1">
<path style=" stroke:none;fill-rule:nonzero;fill:rgb(0%,0%,0%);fill-opacity:1;" d="M 21 10.5 C 21 11.515625 20.175781 12.339844 19.160156 12.339844 L 12.335938 12.339844 L 12.335938 19.164062 C 12.335938 20.179688 11.515625 21 10.5 21 C 9.992188 21 9.53125 20.792969 9.199219 20.460938 C 8.867188 20.128906 8.664062 19.671875 8.664062 19.164062 L 8.664062 12.335938 L 1.835938 12.335938 C 1.332031 12.335938 0.871094 12.132812 0.539062 11.800781 C 0.207031 11.46875 0 11.007812 0 10.5 C 0 9.484375 0.824219 8.664062 1.839844 8.664062 L 8.664062 8.664062 L 8.664062 1.839844 C 8.664062 0.824219 9.484375 0 10.5 0 C 11.515625 0 12.335938 0.824219 12.339844 1.835938 L 12.339844 8.664062 L 19.164062 8.664062 C 20.179688 8.664062 21 9.484375 21 10.5 Z M 21 10.5 "/>
</g>
</svg>
